Auto Visual Inference with Computer Vision Models • autovi
…
This package provide ways to conduct PCA on these features. The feature_pca method will combine the features obtained from the prediction of the observed residual plot, null residual plots, and the bootstrapped residual plots, then conduct PCA on them. The results are the rotated features. The variable set provides the set label of the observation, which can either be “observed”, “null” or “boot”.

checker$feature_pca()
#> # A tibble: 41 × 298
#>      f_1    f_2   f_3   f_4   f_5     f_6    f_7   f_8    f_9  f_10  f_11  f_12
#>    <dbl>  <dbl> <dbl> <dbl> <dbl>   <dbl>  <dbl> <dbl>  <dbl> <dbl> <dbl> <dbl>
#>  1 0.167 0.0687  0     0    0     0.00164 0.0695 0     0.0847 0     0     0.149
#>  2 1.08  4.14    4.10  5.43 2.35  2.04    3.09   2.39  2.01   1.94  4.32  2.43 
#>  3 1.10  2.85    2.90  3.08 1.20  1.21    1.69   1.50  1.59   0.828 2.55  1.75 
#>  4 0.827 3.20    2.92  3.45 1.50  1.28    1.89   1.61  1.64   1.28  2.66  1.71 
#>  5 0.955 3.85    3.74  5.17 2.24  1.97    2.96   2.25  1.81   1.91  4.04  2.23 
#>  6 1.22  3.60    3.70  4.70 2.00  1.72    2.66   2.19  1.77   1.57  3.83  2.18 
#>  7 1.21  3.41    3.51  4.22 1.75  1.58    2.37   1.99  1.75   1.33  3.47  2.08 
#>  8 1.09  3.00    3.04  3.71 1.53  1.40    2.12   1.76  1.53   1.16  3.01  1.85 
#>  9 1.02  2.87    2.84  3.42 1.42  1.28    1.94   1.65  1.45   1.09  2.75  1.70 
#> 10 0.570 1.72    1.25  1.36 0.270 0.342   0.419  0.545 0.959  0.267 0.913 0.875
#> # ℹ 31 more rows
#> # ℹ 286 more variables: f_13 <dbl>, f_14 <dbl>, f_15 <dbl>, f_16 <dbl>,
#> #   f_17 <dbl>, f_18 <dbl>, f_19 <dbl>, f_20 <dbl>, f_21 <dbl>, f_22 <dbl>,
#> #   f_23 <dbl>, f_24 <dbl>, f_25 <dbl>, f_26 <dbl>, f_27 <dbl>, f_28 <dbl>,
#> #   f_29 <dbl>, f_30 <dbl>, f_31 <dbl>, f_32 <dbl>, f_33 <dbl>, f_34 <dbl>,
#> #   f_35 <dbl>, f_36 <dbl>, f_37 <dbl>, f_38 <dbl>, f_39 <dbl>, f_40 <dbl>,
#> #   f_41 <dbl>, f_42 <dbl>, f_43 <dbl>, f_44 <dbl>, f_45 <dbl>, f_46 <dbl>, …
…
