Predict visual signal strength for bootstrapped residual plots — AUTO_VI$boot_vss • autovi
…
#> ✔ Generate bootstrapped data.
#> ✔ Generate bootstrapped plots.
#> Warning: Problem in area computation (Returns NA)
#> Warning: shull: complete hull invisible, data scaling error, will retry with some jitter
#> Warning: Problem in area computation (Returns NA)
#> Computing auxiliary inputs ■■■■■■■■■■■■■                     39% | ETA:  2s
#> Warning: no non-missing arguments to min; returning Inf
#> Warning: shull: complete hull invisible, data scaling error, will retry with some jitter
#> Warning: Problem in area computation (Returns NA)
#> Computing auxiliary inputs ■■■■■■■■■■■■■■■■■■■■■■■■■■■■■■■  100% | ETA:  0s
#> ✔ Compute auxilary inputs.
#> Saving images ■■■■■■■■■■■                       32% | ETA:  2s
#> Saving images ■■■■■■■■■■■■■■■■■■■■■■■■■■■■■■■  100% | ETA:  0s
#> ✔ Predict visual signal strength for 100 images.
#> # A tibble: 100 × 1
#>      vss
#>    <dbl>
#>  1 2.98 
#>  2 2.87 
#>  3 2.93 
#>  4 3.13 
#>  5 3.17 
#>  6 0.833
#>  7 3.44 
#>  8 2.55 
#>  9 2.96 
#> 10 2.78 
#> # ℹ 90 more rows
…
